…
3.  Number of agrees for each question It’s good to take a quick look at
    how many agrees are there for each question. This could help us
    judge whether there is any pattern for answers to distribute.

``` r
responses_joined %>%
  pivot_longer(cols = all_of(new_col), names_to = "question", values_to = "answer") %>%
  group_by(question) %>%
  summarise(agrees = sum(answer %in% c("Strongly Agree", "Agree"), na.rm = TRUE)) %>%
  arrange(desc(agrees))
```

    ## # A tibble: 33 × 2
    ##    question agrees
    ##    <chr>     <int>
    ##  1 Q19         543
    ##  2 Q12         490
    ##  3 Q11         480
    ##  4 Q15         446
    ##  5 Q25         446
    ##  6 Q6          426
    ##  7 Q20         387
    ##  8 Q13         337
    ##  9 Q29         185
    ## 10 Q22         135
    ## # … with 23 more rows
…
