…
2.  Mean age We can also find the mean age of athletes which could be
    integrated into the answer to question 4.
>>>>>>> 9caad11119dbba2604e18c1552d91ccb679c1dc6

``` r
responses_joined %>%
  pivot_longer(cols = Q0:Q32, names_to = "question", values_to = "answer") %>%
  group_by(question) %>%
  summarise(agrees = sum(answer %in% c("Strongly Agree", "Agree"), na.rm = TRUE)) %>%
  arrange(desc(agrees))
```

    ## # A tibble: 33 × 2
    ##    question agrees
    ##    <chr>     <int>
    ##  1 Q19         543
    ##  2 Q12         490
    ##  3 Q11         480
    ##  4 Q15         446
    ##  5 Q25         446
    ##  6 Q6          426
    ##  7 Q20         387
    ##  8 Q13         337
    ##  9 Q29         185
    ## 10 Q22         135
    ## # … with 23 more rows
…
