…
    ## `summarise()` has grouped output by 'qnum'. You can override using the `.groups` argument.

``` r
difference_marks <- tibble(
  qnum = responses_male$qnum,
  male_mark = responses_male$percentage_correctness,
  female_mark = responses_female$percentage_correctness
) %>%
  mutate(difference = male_mark - female_mark) %>%
  arrange(difference)
print(difference_marks)
```

    ## # A tibble: 32 × 4
    ##     qnum male_mark female_mark difference
    ##    <dbl>     <dbl>       <dbl>      <dbl>
    ##  1    30      67.7        79.0     -11.4 
    ##  2    28      67.1        77.1     -10.0 
    ##  3    12      83.1        89.8      -6.67
    ##  4     2      89.1        93.7      -4.53
    ##  5    11      81.0        85.4      -4.40
    ##  6    26      77.0        81.0      -3.94
    ##  7     3      63.4        67.3      -3.87
    ##  8    23      53.8        57.6      -3.78
    ##  9     7      59.8        63.4      -3.60
    ## 10    10      76.1        79.0      -2.89
    ## # … with 22 more rows
…
