…
Then we are going to use this model to predict the outcome of testing
data in order to see whether the model fit is good.

``` r
data_predict <- predict(data_fit, testing_data, type = "prob") %>%
  bind_cols(testing_data)
data_predict %>%
  select(.pred_0, .pred_1, real_world)
```

    ## # A tibble: 94 × 3
    ##    .pred_0 .pred_1 real_world
    ##      <dbl>   <dbl> <fct>     
    ##  1   0.265   0.735 1         
    ##  2   0.265   0.735 1         
    ##  3   0.265   0.735 1         
    ##  4   0.265   0.735 0         
    ##  5   0.265   0.735 1         
    ##  6   0.265   0.735 1         
    ##  7   0.265   0.735 0         
    ##  8   0.265   0.735 1         
    ##  9   0.487   0.513 1         
    ## 10   0.487   0.513 0         
    ## # … with 84 more rows
…
